%YAML 1.1
%TAG !u! tag:unity3d.com,2011:
--- !u!1001 &7833704160952216177
PrefabInstance:
  m_ObjectHideFlags: 0
  serializedVersion: 2
  m_Modification:
    m_TransformParent: {fileID: 0}
    m_Modifications:
    - target: {fileID: -3236255180096023290, guid: 636c04b705dcd4141bf64b0d93feba58,
        type: 3}
      propertyPath: resData
      value: 
      objectReference: {fileID: 11400000, guid: f9c8a135058f78345ad33be641d03d60,
        type: 2}
    - target: {fileID: 3763094555172215679, guid: 636c04b705dcd4141bf64b0d93feba58,
        type: 3}
      propertyPath: m_Name
      value: Fuel_Scrap
      objectReference: {fileID: 0}
    - target: {fileID: 5393108540836357475, guid: 636c04b705dcd4141bf64b0d93feba58,
        type: 3}
      propertyPath: m_Mesh
      value: 
      objectReference: {fileID: -4051281310963081597, guid: 15143cc9bf74a2f499655783514d56a9,
        type: 3}
    - target: {fileID: 5453565068963269248, guid: 636c04b705dcd4141bf64b0d93feba58,
        type: 3}
      propertyPath: m_LocalPosition.x
      value: 0
      objectReference: {fileID: 0}
    - target: {fileID: 5453565068963269248, guid: 636c04b705dcd4141bf64b0d93feba58,
        type: 3}
      propertyPath: m_LocalPosition.y
      value: 0
      objectReference: {fileID: 0}
    - target: {fileID: 5453565068963269248, guid: 636c04b705dcd4141bf64b0d93feba58,
        type: 3}
      propertyPath: m_LocalPosition.z
      value: 0
      objectReference: {fileID: 0}
    - target: {fileID: 5453565068963269248, guid: 636c04b705dcd4141bf64b0d93feba58,
        type: 3}
      propertyPath: m_LocalRotation.x
      value: 0
      objectReference: {fileID: 0}
    - target: {fileID: 5453565068963269248, guid: 636c04b705dcd4141bf64b0d93feba58,
        type: 3}
      propertyPath: m_LocalRotation.y
      value: 0
      objectReference: {fileID: 0}
    - target: {fileID: 5453565068963269248, guid: 636c04b705dcd4141bf64b0d93feba58,
        type: 3}
      propertyPath: m_LocalRotation.z
      value: 0
      objectReference: {fileID: 0}
    - target: {fileID: 5453565068963269248, guid: 636c04b705dcd4141bf64b0d93feba58,
        type: 3}
      propertyPath: m_LocalRotation.w
      value: 1
      objectReference: {fileID: 0}
    - target: {fileID: 5453565068963269248, guid: 636c04b705dcd4141bf64b0d93feba58,
        type: 3}
      propertyPath: m_RootOrder
      value: 0
      objectReference: {fileID: 0}
    - target: {fileID: 5453565068963269248, guid: 636c04b705dcd4141bf64b0d93feba58,
        type: 3}
      propertyPath: m_LocalEulerAnglesHint.x
      value: 0
      objectReference: {fileID: 0}
    - target: {fileID: 5453565068963269248, guid: 636c04b705dcd4141bf64b0d93feba58,
        type: 3}
      propertyPath: m_LocalEulerAnglesHint.y
      value: 0
      objectReference: {fileID: 0}
    - target: {fileID: 5453565068963269248, guid: 636c04b705dcd4141bf64b0d93feba58,
        type: 3}
      propertyPath: m_LocalEulerAnglesHint.z
      value: 0
      objectReference: {fileID: 0}
    - target: {fileID: 7429681694555640458, guid: 636c04b705dcd4141bf64b0d93feba58,
        type: 3}
      propertyPath: m_Materials.Array.data[0]
      value: 
      objectReference: {fileID: 2100000, guid: 2015aa572bcd8504d87922afc0adff87, type: 2}
    m_RemovedComponents: []
  m_SourcePrefab: {fileID: 100100000, guid: 636c04b705dcd4141bf64b0d93feba58, type: 3}
