%YAML 1.1
%TAG !u! tag:unity3d.com,2011:
--- !u!114 &11400000
MonoBehaviour:
  m_ObjectHideFlags: 0
  m_CorrespondingSourceObject: {fileID: 0}
  m_PrefabInstance: {fileID: 0}
  m_PrefabAsset: {fileID: 0}
  m_GameObject: {fileID: 0}
  m_Enabled: 1
  m_EditorHideFlags: 0
  m_Script: {fileID: 11500000, guid: 04663c3a63ea8aa46a74d017ca0ff1cc, type: 3}
  m_Name: Fuze_Part_1
  m_EditorClassIdentifier: 
  consumption:
  - res: {fileID: 11400000, guid: 825a28a6cee88194c90a5c0315f17c3f, type: 2}
    ammount: 1
  - res: {fileID: 11400000, guid: 088646218dd2ff044992f2fad456f00d, type: 2}
    ammount: 1
  - res: {fileID: 11400000, guid: 9e4f1e17ee23c0f4480f75930bb84dea, type: 2}
    ammount: 1
  production:
    res: {fileID: 11400000, guid: c65dec1e465ae454b8cc0ba642817215, type: 2}
    ammount: 0
